8.244712484215742654e-01
8.236935604385550169e-01
8.225041552936153133e-01
8.158709342920812402e-01
8.177007883657637644e-01
8.189969349980698032e-01
8.207047987959319446e-01
8.181582518785037728e-01
8.220009454291469231e-01
8.165723783519174273e-01
