7.858507386349441459e-01 7.905629138769206810e-01 7.852139581968392568e-01 7.829215486803895452e-01 7.956571574121242829e-01 7.864875191337772353e-01 7.967396841569026611e-01 7.799286805605681883e-01 7.821574121546636116e-01 8.062277126543022643e-01
7.908176260521626588e-01 7.962939378502292831e-01 8.028527763627101299e-01 7.876974019661765469e-01 8.049541517780923749e-01 7.710137544270989629e-01 8.031074885683161524e-01 7.599974529086116481e-01 7.875063678347451468e-01 7.897987773815587920e-01
7.973764645646436167e-01 8.067371370351502646e-01 8.027890982885356186e-01 7.955934793683138162e-01 8.050815078960774640e-01 7.865511971168596128e-01 7.970580743759552167e-01 7.805654609986730774e-01 7.989684156902699952e-01 8.128502292105936888e-01
7.973127865815612392e-01 7.805654609986730774e-01 8.002419765664798845e-01 8.051451859398879307e-01 8.082017320427916651e-01 7.966123280692817277e-01 7.954661232503287271e-01 8.038716250636780414e-01 7.806928171470222111e-01 8.071828833721877983e-01
8.044447274276084192e-01 8.089021905550711766e-01 8.126591950791621777e-01 7.901808456444218143e-01 7.911360162712151034e-01 8.104941416503335105e-01 8.119587366579749110e-01 8.089658685381535541e-01 8.128502292409577334e-01 8.112582781456953995e-01
8.060366785532347977e-01 8.129139072847682002e-01 7.992868059396864844e-01 7.986500254712175506e-01 8.020886398673482409e-01 8.118950585838002887e-01 8.250764136222085154e-01 8.079470198979137319e-01 8.045084055017829305e-01 8.057819664083569755e-01
8.088385124808965543e-01 8.136780437801300891e-01 8.125955170960798002e-01 7.975038206522645501e-01 8.090932246257744875e-01 8.176897606009193575e-01 8.094116148751910877e-01 8.053362200409553973e-01 8.131686194600101780e-01 8.042536933265410637e-01
8.101120733267423990e-01 8.008150789607743070e-01 8.062913907588409312e-01 8.108762098828323772e-01 8.148879266732576010e-01 8.106851757817650217e-01 8.095389709931760658e-01 8.130412634027532892e-01 8.069281711969458204e-01 8.153336729799310900e-01
8.081380540293452430e-01 8.222745797249108035e-01 8.046357615894039750e-01 8.063550687722873533e-01 8.154610290371879788e-01 8.139964340295465783e-01 8.159704534180359792e-01 8.024070300864006855e-01 8.036805909018824856e-01 8.077559857057541315e-01
8.187722873153336911e-01 8.101120733571064436e-01 8.159704533876719346e-01 8.095389709931760658e-01 8.080106979113601540e-01 8.144421803058560227e-01 8.045720835759575529e-01 8.161614874887394011e-01 7.997962302598063955e-01 7.919001527969410370e-01
8.076286296788612873e-01 8.069918491800281979e-01 8.132959755779952671e-01 8.012608252978118406e-01 8.124681610084587557e-01 8.125318389915412443e-01 8.098573612122285104e-01 8.181991849514033133e-01 8.217014773609804257e-01 8.194727457668850024e-01
8.116403464085583108e-01 8.122771268162992664e-01 8.007514009169638403e-01 8.100483953436600215e-01 8.155247070506344009e-01 8.225292919001527814e-01 8.126591951398902669e-01 8.141874681306140449e-01 8.035532348142615522e-01 8.067371370351502646e-01
8.064824248599082868e-01 8.145695364238411118e-01 8.203005603971496029e-01 8.136780437801300891e-01 8.034895568311791747e-01 8.156520631382554454e-01 8.027254203054532411e-01 8.157794192562404234e-01 8.120224146410572885e-01 8.175624044525702239e-01
8.167345899437619128e-01 8.156520631989835346e-01 8.134233316048881113e-01 8.141237901171676228e-01 8.061640346104917976e-01 8.157157412427940013e-01 8.020249617931737296e-01 8.207463066734589363e-01 8.066097809171652866e-01 8.153973510237415567e-01
8.051451859702519753e-01 8.192817116658176468e-01 8.098573611515004211e-01 8.109398878962787993e-01 8.241212430257792709e-01 8.141237901475316674e-01 8.268593989096304497e-01 8.131686194600101780e-01 8.209373408352544921e-01 8.099847172998495548e-01
8.252037697401936045e-01 8.241849210392256930e-01 8.153973509933775121e-01 8.199184920735584914e-01 8.126591950791621777e-01 8.174350483649492904e-01 8.129775853589427115e-01 8.106851757210368215e-01 8.206826285992844250e-01 8.136143657363196224e-01
8.191543556085606470e-01 8.208736627610799808e-01 8.120860927455958445e-01 8.113856342636803776e-01 8.104941416199694659e-01 8.124681610084587557e-01 8.193453896792640689e-01 8.141874681913421341e-01 8.146332144372875339e-01 8.113219561591418216e-01
8.139964339991825337e-01 8.066734589913397979e-01 8.087748344674501322e-01 8.106214976772263547e-01 8.174350483953133351e-01 8.069918492103922425e-01 8.110035659400893771e-01 8.203642384105960250e-01 8.224019358428958926e-01 8.069918491800281979e-01
8.001782985530334624e-01 8.256495160772311381e-01 8.190906775343861357e-01 8.220835455631153588e-01 8.160978094752928680e-01 8.233571065000533373e-01 7.659195109829876058e-01 8.113219561895058662e-01 8.164161996639813790e-01 8.036169129188001081e-01
8.198548140297480247e-01 8.087111563629115762e-01 8.310621497707590954e-01 8.308711156089635397e-01 8.147605705552725119e-01 8.096026490066224879e-01 8.189633214164010466e-01 8.186449312277126467e-01 8.136780438104941338e-01 8.140601121037212007e-01
8.122771268162992664e-01 8.224656138259782701e-01 8.153336729799310900e-01 8.179444727154332462e-01 8.167345899437619128e-01 8.142511462047885562e-01 8.207463066734589363e-01 8.121497707590422666e-01 8.100483953132959769e-01 8.211283749666860032e-01
8.204279164544064917e-01 8.202368823533391362e-01 8.171803362504354018e-01 8.104304636065230438e-01 8.038079470502316193e-01 8.229750382068262704e-01 8.179444727761613354e-01 8.208099846869054694e-01 8.183902190524706688e-01 8.203005603971496029e-01
8.253948038716251157e-01 8.138690779115616003e-01 8.002419765361158399e-01 8.190269994602116244e-01 8.213194090677534698e-01 8.160978095056570236e-01 8.064187468464618647e-01 8.212557310543070477e-01 8.071192052980132869e-01 8.232297503820682483e-01
8.032348446559371968e-01 8.128502292713217781e-01 8.124681610084587557e-01 8.117040244523687775e-01 8.180081507896077575e-01 8.176897605705553129e-01 8.198548140601120693e-01 8.174350484256773797e-01 8.169893020582758014e-01 8.203005603971496029e-01
8.055272542027508420e-01 8.236118186449312706e-01 8.257131940603135156e-01 8.102394294143634434e-01 7.920911869891006374e-01 8.176897605401912683e-01 8.146968925114620452e-01 8.173076922773282460e-01 8.176897605401912683e-01 8.108762099131964218e-01
8.244396331841036263e-01 8.152699949057564677e-01 8.101757514312810660e-01 8.210010188790650698e-01 8.160978094449288234e-01 8.239938869077941819e-01 8.234844625269461815e-01 8.196001018545060468e-01 8.075649516046866649e-01 8.178171166885402910e-01
8.169256240448293793e-01 8.117677024658153107e-01 8.164798777077918457e-01 7.973127865208330389e-01 8.120860927152317998e-01 8.108125318390219105e-01 8.137417218846686451e-01 8.155883850944448676e-01 8.169256240751934239e-01 8.098573611515004211e-01
8.087748344370860876e-01 8.162251655629139124e-01 8.172440142335177793e-01 7.972491085073866168e-01 8.181355068468646463e-01 8.182628629952137800e-01 8.192180336523712247e-01 8.111946001018848218e-01 8.159067753134974232e-01 8.010061131225698627e-01
8.197911359859375580e-01 8.138690779115616003e-01 8.096026490369865325e-01 7.969307182883341723e-01 8.044447274276084192e-01 8.082017320427916651e-01 8.229113601326517591e-01 8.153336729799310900e-01 8.191543555478325578e-01 8.342460519612837633e-01
8.267957208658199830e-01 8.267957208050918938e-01 8.162251655629139124e-01 8.048904737950099975e-01 8.085201222314800651e-01 8.151426387877714896e-01 8.085838002752905318e-01 8.069918492407562871e-01 8.148242486294471343e-01 8.236118186145671149e-01
8.094752929493655991e-01 8.248217014773305822e-01 8.175624044829342685e-01 8.229113601630158037e-01 8.256495160165029379e-01 8.147605705856365566e-01 8.084564442483976876e-01 8.157157412427940013e-01 8.116403463781942662e-01 8.268593988792664051e-01
8.108125318693859551e-01 7.850229240654077456e-01 8.045084054714188859e-01 8.184538970962812465e-01 8.071828833721877983e-01 8.140601121037212007e-01 8.144421803362200674e-01 8.146332144372875339e-01 7.828578705758508782e-01 8.209373408352544921e-01
8.103667855627124661e-01 8.243122771268466265e-01 8.231660723078937369e-01 8.173713703515027573e-01 7.945109526538994826e-01 8.185812532142662246e-01 8.089658685988816433e-01 8.064187468464618647e-01 8.059730005397883756e-01 7.840040753644398341e-01
8.187722873456977357e-01 8.108125318693859551e-01 8.200458481915435804e-01 8.082017320427916651e-01 8.283239938565437610e-01 8.126591951095262223e-01 8.242485990526721151e-01 8.265410086905780052e-01 8.238028527459986261e-01 8.234207845438638040e-01
8.290244523991873171e-01 8.125955170353517110e-01 8.171166582066249351e-01 8.108125318390219105e-01 8.031711666121266191e-01 8.089021904943429764e-01 8.290244523384591169e-01 8.185812531839021799e-01 8.283876719003542277e-01 8.083290881304125985e-01
8.153336729495669344e-01 8.142511461744245116e-01 7.979495670196661283e-01 8.159067753438614679e-01 8.111946000715207772e-01 8.198548140297480247e-01 8.165435557516023124e-01 8.113856342636803776e-01 7.930463576158940375e-01 8.016428935303107073e-01
8.183265410390242467e-01 8.034258787873685970e-01 8.090932246561385321e-01 8.259042282524731160e-01 8.188359653591441578e-01 8.155883850944448676e-01 8.201095262657180918e-01 8.173713703515027573e-01 7.934921039225675266e-01 7.982042791949081062e-01
8.152063168619460010e-01 8.090295465819640208e-01 8.144421803058560227e-01 8.193453896792640689e-01 8.227840040450307146e-01 8.138053999284792228e-01 8.028527763930741745e-01 8.260315843097300048e-01 8.098573611818644657e-01 8.240575649516046486e-01
8.162251655629139124e-01 8.064824248599082868e-01 8.123408049208378223e-01 8.162251655932779570e-01 8.139964340295465783e-01 8.100483953132959769e-01 8.223382577383573366e-01 8.241212430257792709e-01 8.126591950791621777e-01 8.220198675193047810e-01
8.231660723078937369e-01 8.267320427916454717e-01 8.077559857361181761e-01 8.025980641874681520e-01 8.110672440446279330e-01 8.266046867343884719e-01 8.095389709931760658e-01 8.249490575345875820e-01 8.057182883645463978e-01 8.061640346104917976e-01
8.150789608046891122e-01 8.183902190524706688e-01 8.098573612122285104e-01 8.241849210392256930e-01 8.199184921039225360e-01 8.178807947323507577e-01 8.237391747629162486e-01 8.148242485990830897e-01 8.145058583496664895e-01 8.058456443914393530e-01
8.133596535914416892e-01 8.015155374123257292e-01 8.190906775647501803e-01 8.145058583496664895e-01 8.273051451859398941e-01 7.998599082732528176e-01 7.946383087415204161e-01 8.189633214164010466e-01 8.113856342636803776e-01 8.135506876925090447e-01
8.224019358125318480e-01 8.056546103207359311e-01 8.199821701173689581e-01 8.185812532142662246e-01 8.174987264391238018e-01 8.223382577990854259e-01 8.130412633420250890e-01 8.280692816813017831e-01 8.215741212126314030e-01 8.185812531535381353e-01
8.147605705856365566e-01 8.217014773609804257e-01 8.124044829342842444e-01 8.105578196637799326e-01 8.034258787570045524e-01 8.175624045132983131e-01 8.152063168619460010e-01 8.201095262049900025e-01 8.161614874887394011e-01 8.148242485687189340e-01
8.242485991134002044e-01 8.237391747021881594e-01 8.145058584103945787e-01 8.152063168619460010e-01 8.079470198979137319e-01 8.257131941210416048e-01 8.168619459706547570e-01 8.113219562198699109e-01 8.299796229956165616e-01 8.135506876925090447e-01
8.115766683951118887e-01 8.094752929493655991e-01 8.176260825267447352e-01 8.256495160468670935e-01 8.101120733267423990e-01 8.164161996639813790e-01 8.035532348446255968e-01 7.743886907794192975e-01 8.271777890679548051e-01 8.187722872849696465e-01
8.201095262049900025e-01 8.221472236372898701e-01 8.201732042791645139e-01 8.150152827001504452e-01 8.168619460010188016e-01 8.190269994602116244e-01 8.210010188487009142e-01 8.292791645744292950e-01 8.201732043095285585e-01 8.141874681306140449e-01
8.282603158127332943e-01 8.215104431688208253e-01 8.257131941210416048e-01 8.213194090373894252e-01 8.219561894754943143e-01 8.100483953132959769e-01 8.240575649516046486e-01 8.191543556085606470e-01 7.987773815588384840e-01 8.200458481915435804e-01
8.255221599288820045e-01 8.024707081302112632e-01 8.193453897399921582e-01 8.037442690064211526e-01 8.262226184411615160e-01 8.225292918697887368e-01 8.162888436067243791e-01 8.024707080998472186e-01 8.185175751400917132e-01 8.064824248902723314e-01
8.167982679268442903e-01 8.062277127150303535e-01 8.138053998981151782e-01 8.211283749059579140e-01 8.201732043095285585e-01 8.246306673458991821e-01 8.220198675800329813e-01 8.058456444521674422e-01 8.028527763930741745e-01 8.187722873153336911e-01
8.241849210392256930e-01 8.107488537648473992e-01 8.068008150789607313e-01 8.151426388484995789e-01 7.856597045338766794e-01 8.254584818850715378e-01 8.097936831076899544e-01 8.118313805096257774e-01 8.010061130922058181e-01 8.087748344674501322e-01
8.231660723686218262e-01 8.117677024658153107e-01 8.094752928886375098e-01 8.126591951095262223e-01 8.182628629952137800e-01 8.058456444218033976e-01 8.050178298219028417e-01 8.241212429954152263e-01 8.068008151093248870e-01 8.240575649212406040e-01
8.233571064696892927e-01 8.244396332448317155e-01 8.197911359859375580e-01 8.004330107282754403e-01 8.306164034337215618e-01 8.167345899437619128e-01 7.937468160674454598e-01 8.089658685988816433e-01 8.106214976772263547e-01 8.204915944982170695e-01
8.069281711665817758e-01 8.304890474068286066e-01 8.116403464085583108e-01 8.101120733267423990e-01 8.215741212733594923e-01 8.157157411820659121e-01 8.023433519818621296e-01 8.240575649212406040e-01 8.253948038412609600e-01 8.204915945285811141e-01
8.184538971266452911e-01 8.203005603971496029e-01 8.186449312580766913e-01 8.140601120429930004e-01 8.245033112582781376e-01 8.106214976772263547e-01 8.305527253899109841e-01 8.246943453593456042e-01 8.083927662045872209e-01 8.227203260619483371e-01
8.113856342333163330e-01 7.956571573817602383e-01 8.086474783798291988e-01 8.086474783191009985e-01 8.165435558123304016e-01 8.172440142335177793e-01 8.236754966887417373e-01 8.153336729799310900e-01 8.227840040753947592e-01 8.046994396332144417e-01
8.158430972696868455e-01 8.083290881304125985e-01 8.133596535610776446e-01 8.085201222314800651e-01 8.091569026999491099e-01 8.204279164544064917e-01 7.936831380843630823e-01 8.222745797249108035e-01 8.292791645440652504e-01 8.253311258581785825e-01
8.138690779115616003e-01 8.245033112582781376e-01 8.272414671421294274e-01 8.271777890983188497e-01 8.264773305860394492e-01 8.329724910547098293e-01 8.202368823229750916e-01 8.020886398066201517e-01 8.156520631382554454e-01 8.113856342636803776e-01
8.160341314011183567e-01 8.231660723382577816e-01 8.054635761285763307e-01 8.214467651250103586e-01 8.164798777077918457e-01 8.118950586141643333e-01 8.179444727761613354e-01 8.032348446559371968e-01 8.169256240448293793e-01 8.041900152523664413e-01
8.151426387877714896e-01 8.081380540293452430e-01 7.880157921548650579e-01 8.137417218846686451e-01 8.109398878962787993e-01 8.129775853589427115e-01 8.232297503517042037e-01 8.264773306164034938e-01 8.218288333878733809e-01 8.024707080998472186e-01
8.046357615894039750e-01 8.156520631989835346e-01 8.233571064393252481e-01 8.068008150789607313e-01 8.210646968925114919e-01 8.206826286296484696e-01 8.253948039019891603e-01 7.950840550178298605e-01 8.064187467857337754e-01 8.083290881607766432e-01
8.160341314314824013e-01 8.059093224352498197e-01 8.111309220277103105e-01 8.163525216808990015e-01 8.084564442180336430e-01 8.220835456238434480e-01 8.046994396028503971e-01 8.167345899133978682e-01 8.255858380030565158e-01 8.038716250333139968e-01
8.113219561591418216e-01 8.059730005397883756e-01 8.199184920735584914e-01 8.024707080998472186e-01 8.223382577990854259e-01 8.180081508199718021e-01 8.153973509933775121e-01 8.082654100866021318e-01 8.127228731229726444e-01 8.221472236676539147e-01
8.027254202750891965e-01 7.978858889758556616e-01 8.120224146410572885e-01 8.216377992868059144e-01 8.213194090373894252e-01 8.190269994905756690e-01 8.059730005397883756e-01 8.277508914622493386e-01 8.197911360466656472e-01 8.096663270807971102e-01
8.192817116354536022e-01 8.017702496482957963e-01 8.045084055321470862e-01 8.263499744984184048e-01 8.030438104941416411e-01 8.229113601630158037e-01 8.262226184107974714e-01 8.216377993171699590e-01 8.157794192258763788e-01 8.227840041057589149e-01
8.103667855627124661e-01 8.148242485990830897e-01 8.107488538255754884e-01 8.053362201016834865e-01 8.177534386447298242e-01 8.209373408048904475e-01 8.264773306467675384e-01 8.296612327765641171e-01 8.165435557819663570e-01 8.073102393990806425e-01
8.245669893324526489e-01 8.145058583800305341e-01 8.118313805399898220e-01 8.099847172391214656e-01 8.064187468464618647e-01 8.258405502086625383e-01 8.266046867040244273e-01 8.228476821192053370e-01 8.152063168619460010e-01 8.083927662045872209e-01
8.189633214164010466e-01 8.269867549365234050e-01 7.919001528273051926e-01 8.150789608046891122e-01 8.124681609780947111e-01 8.110672439838998438e-01 7.982679572083545283e-01 7.961665817929722833e-01 7.892893530007107916e-01 8.160341314011183567e-01
8.223382577687213812e-01 8.068644931227713091e-01 7.996051960980108397e-01 8.092842587572059987e-01 8.083290881000485539e-01 8.211283749666860032e-01 8.018339276617422184e-01 8.232934284562427596e-01 8.193453896792640689e-01 8.136143657363196224e-01
7.915180845948062149e-01 8.302980132146690062e-01 8.244396331841036263e-01 8.169893020886398460e-01 8.138690779115616003e-01 8.008787570349489293e-01 7.862964849719816796e-01 8.166709118695874015e-01 8.082017320124276205e-01 8.172440142942458685e-01
8.172440142335177793e-01 8.135506877532372449e-01 8.196001019152341360e-01 8.046357615590399304e-01 8.099847172391214656e-01 8.176897605705553129e-01 8.045720835152294637e-01 8.104304635761588882e-01 8.241849210088616484e-01 8.145058584103945787e-01
8.049541517780923749e-01 8.185812532142662246e-01 8.080106979417241986e-01 8.127228731837007336e-01 8.174987264391238018e-01 8.068008150485966867e-01 8.173713703515027573e-01 8.108125318693859551e-01 8.043173713703515304e-01 8.178171166581762463e-01
8.210646968925114919e-01 8.090932246561385321e-01 8.131686194296461334e-01 8.036169128580720189e-01 8.225292918697887368e-01 8.041900152827304860e-01 8.183902190828347134e-01 7.961665817322441940e-01 8.140601120429930004e-01 8.102394294143634434e-01
8.190906775040220911e-01 8.096026490066224879e-01 8.206189506162020475e-01 8.038079470198675747e-01 8.234207844831357148e-01 7.821574120939355224e-01 8.257768721344880269e-01 8.023433519818621296e-01 8.018339276313781738e-01 8.229113601933798483e-01
8.099847172391214656e-01 8.196637799590446027e-01 8.099847172694855102e-01 8.150789607439609119e-01 8.213830871115639365e-01 8.072465614159982650e-01 8.166709118392233568e-01 8.164161997247094682e-01 8.133596535610776446e-01 8.097300051246075769e-01
8.039353031074885081e-01 8.125318390219052889e-01 8.138053998677510226e-01 8.089021905550711766e-01 7.941925624044828824e-01 7.766174223127865206e-01 8.215741212733594923e-01 8.197911360466656472e-01 8.010697911663803295e-01 8.259679062355554935e-01
8.237391747325522040e-01 8.243122770964825818e-01 8.184538970962812465e-01 8.112582781153313549e-01 8.145695363934769562e-01 8.101120733267423990e-01 8.099847172694855102e-01 8.134870096486985780e-01 8.186449312580766913e-01 7.974401426388181280e-01
8.096663270807971102e-01 8.266683647174708494e-01 8.201732042791645139e-01 8.025343861436576853e-01 8.163525216201708012e-01 8.075012735608761982e-01 8.125955170960798002e-01 8.022159958942410851e-01 8.129139072847682002e-01 8.111946001322489774e-01
8.113219562198699109e-01 8.246943453897096488e-01 7.950840550178298605e-01 8.184538970962812465e-01 8.171166581458967348e-01 8.128502292409577334e-01 8.225292919001527814e-01 7.938741721550663932e-01 7.889709627816583470e-01 8.121497707590422666e-01
8.225929699439633591e-01 8.255221599288820045e-01 8.016428935303107073e-01 8.210646968925114919e-01 8.024070300864006855e-01 8.166072338561409794e-01 8.096026490369865325e-01 8.250127356087620933e-01 8.158430973304150458e-01 8.241849210392256930e-01
8.186449312580766913e-01 8.025343861132936407e-01 7.969943963625086836e-01 7.954661232806927718e-01 8.150789607743250675e-01 8.125955170657157556e-01 8.103667855627124661e-01 8.133596535610776446e-01 8.131049414465637559e-01 8.255858379726924712e-01
8.063550687722873533e-01 8.155883851248089123e-01 8.074375955170657315e-01 8.186449312277126467e-01 8.206189506162020475e-01 8.175624044525702239e-01 8.220835455631153588e-01 8.160978094752928680e-01 8.189633214164010466e-01 8.170529801628143574e-01
8.243759551706572042e-01 8.196637799286805581e-01 8.117677024658153107e-01 8.233571064696892927e-01 8.138690779419256449e-01 8.162251655325498678e-01 8.137417218543046005e-01 8.091569027303131545e-01 8.057819663476287753e-01 8.096026490369865325e-01
8.131686194600101780e-01 8.161614875191034457e-01 8.179444727154332462e-01 8.178171166278122017e-01 8.194727457668850024e-01 8.207463066430948917e-01 8.114493122467627551e-01 8.052088640140624420e-01 8.181991849210392687e-01 8.242485990526721151e-01
8.067371370655143092e-01 8.264773306164034938e-01 8.246306673762632267e-01 8.078196638102926874e-01 8.183265409782961575e-01 8.140601120429930004e-01 7.976948547836960612e-01 8.192817116658176468e-01 8.240575649516046486e-01 8.296612328372922063e-01
8.136780438104941338e-01 8.308074376258811622e-01 8.164161996639813790e-01 8.094116148751910877e-01 7.982042791341800170e-01 8.155883851551730679e-01 8.106214977379544440e-01 8.157157412427940013e-01 8.165435557819663570e-01 8.274325012431967830e-01
8.166709118999514461e-01 8.138053998677510226e-01 8.148879266428935564e-01 8.224656138259782701e-01 7.948930208863983493e-01 8.190269994905756690e-01 7.927279673664775483e-01 8.085201222922081543e-01 7.894167091186958807e-01 8.204279164847705363e-01
7.934284258483929042e-01 8.239302088639837152e-01 8.316989302392280292e-01 8.125955170657157556e-01 8.104304636065230438e-01 7.742613346614342085e-01 8.085838002752905318e-01 8.182628629952137800e-01 8.194090677534385803e-01 8.129139072544041555e-01
8.219561895362224035e-01 8.104941416503335105e-01 8.062913907588409312e-01 8.234207845438638040e-01 8.254584819154355824e-01 8.122134488028527333e-01 8.143148242182349783e-01 8.185175751704557578e-01 8.138690779115616003e-01 8.197911359859375580e-01
7.995415181149284622e-01 8.110035660008174663e-01 8.134233316048881113e-01 8.183265409782961575e-01 8.166072337954127791e-01 8.233571064696892927e-01 8.050178298219028417e-01 8.253948038716251157e-01 8.275598573611818720e-01 8.208736627914440254e-01
8.102394294750915327e-01 8.076286296181330870e-01 8.226566479877738258e-01 8.123408048904737777e-01 8.063550688026513980e-01 8.167345898830338236e-01 8.259042282221090714e-01 8.231660723382577816e-01 8.178807947323507577e-01 7.971854304939401947e-01
8.039989811816631304e-01 8.082654100866021318e-01 7.927916454102880151e-01 8.311258278145695622e-01 8.211920530104964699e-01 8.129775853285786669e-01 8.215104432295490255e-01 8.048267956904714415e-01 7.980132450027485058e-01 8.257131940603135156e-01
8.152699949361205123e-01 8.135506877228732003e-01 8.110035659704534217e-01 8.101120733267423990e-01 8.025343861740217299e-01 8.056546102600078418e-01 8.088385125112605989e-01 8.082654100562380872e-01 8.106214977379544440e-01 8.243122771268466265e-01
8.180718288637822688e-01 8.045720835759575529e-01 8.138690779419256449e-01 8.038716250333139968e-01 7.995415180542003730e-01 8.219561895058583589e-01 8.203642384409600696e-01 8.039989811816631304e-01 8.141237900868035782e-01 8.141874681306140449e-01
8.084564442483976876e-01 7.933010698215000600e-01 8.188996433725905799e-01 8.206826286296484696e-01 8.162888435763603345e-01 8.313805400201755846e-01 8.157157412427940013e-01 8.184538971266452911e-01 7.957845134997453274e-01 8.164161997247094682e-01
8.259679062962835827e-01 8.135506876925090447e-01 8.174350483649492904e-01 8.176260825571088908e-01 8.201732043095285585e-01 8.197911360466656472e-01 7.862328069281712128e-01 7.933647478653105267e-01 7.943835965662784382e-01 8.269230769534410275e-01
7.934921039225675266e-01 8.233571064696892927e-01 8.229750382068262704e-01 8.078196637495645982e-01 7.889072847378478803e-01 8.162888435763603345e-01 8.147605705856365566e-01 8.180081507592437129e-01 8.159067753742255125e-01 8.253311257974504933e-01
8.215741212126314030e-01 8.183265410390242467e-01 8.046994396635784863e-01 8.141237900868035782e-01 8.167345898830338236e-01 7.970580744063192613e-01 8.164161996943454236e-01 8.117677024961793553e-01 8.094116149055551324e-01 8.230387162202726925e-01
