8.022796739380516629e-01 8.124044829646482890e-01 8.236754966583776927e-01 8.176260825267447352e-01 8.160978095056570236e-01 8.143148242485991339e-01 8.178807947019867131e-01 8.203642384105960250e-01 7.876337238920020356e-01 8.113856342333163330e-01
8.266683647174708494e-01 7.815206317165586114e-01 8.020886398369841963e-01 8.173076922773282460e-01 8.095389709931760658e-01 8.161614875191034457e-01 8.093479368313805100e-01 8.107488537952114438e-01 8.322083545897119849e-01 8.110035659400893771e-01
8.152063168315819564e-01 8.114493122467627551e-01 7.959755476615408831e-01 8.045084055321470862e-01 8.069918491800281979e-01 7.978222109016811503e-01 8.015155374730538185e-01 8.145695363934769562e-01 8.052725420578730198e-01 8.081380539989811984e-01
8.137417218543046005e-01 7.981406011510976395e-01 8.066097809778933758e-01 8.165435557516023124e-01 7.973127865815612392e-01 7.979495669893020837e-01 8.055909322161973751e-01 8.111946001322489774e-01 8.045084054714188859e-01 8.139964340599106229e-01
8.162251655932779570e-01 8.184538970659170909e-01 8.196001019152341360e-01 8.005603668158963737e-01 8.233571064393252481e-01 8.132959755476312225e-01 8.147605705552725119e-01 8.163525216505348459e-01 8.134870096790626226e-01 8.089658685685175987e-01
7.880794701986755246e-01 8.147605705249084673e-01 8.135506877532372449e-01 8.124044829646482890e-01 7.929826796024476154e-01 8.192180336523712247e-01 8.210010188790650698e-01 8.221472236069258255e-01 8.290244523384591169e-01 8.094116148448269321e-01
8.241849210392256930e-01 8.122134487724886887e-01 8.149516047170680677e-01 8.317626082526744513e-01 8.207463066430948917e-01 8.243122770964825818e-01 8.113856342029522883e-01 8.099847172391214656e-01 8.010061130922058181e-01 8.124044829039201998e-01
7.931100356597045042e-01 8.102394294143634434e-01 8.181991849210392687e-01 8.050178298522668863e-01 8.213830871419279811e-01 8.200458482219076251e-01 8.194090677534385803e-01 8.010697911360162848e-01 8.039353031074885081e-01 8.049541517780923749e-01
8.153336729192028898e-01 8.103667855627124661e-01 8.068644931227713091e-01 8.051451859398879307e-01 8.117677024961793553e-01 8.178171166581762463e-01 7.920275089149261261e-01 8.086474783798291988e-01 8.082017320124276205e-01 8.201095262353540472e-01
8.196637799590446027e-01 8.165435558123304016e-01 8.138690779115616003e-01 8.159704533573078900e-01 7.962939378805933277e-01 8.173076922773282460e-01 7.976311767702496391e-01 8.042536933569051083e-01 8.131049414465637559e-01 8.244396332144676709e-01
